module gitlab.com/evpadallas/kafka-auto-provisioning

go 1.21.4

require github.com/ilyakaznacheev/cleanenv v1.5.0

require (
	github.com/BurntSushi/toml v1.2.1 // indirect
	github.com/joho/godotenv v1.5.1 // indirect
	gopkg.in/yaml.v3 v3.0.1 // indirect
	olympos.io/encoding/edn v0.0.0-20201019073823-d3554ca0b0a3 // indirect
)
